Taller de introducción a R con la Encuesta ICSOH-UDP
…
mini_base <- data.frame(edad, sexo, region)
mini_base
#>   edad   sexo        region
#> 1   18  Mujer Metropolitana
#> 2   22 Hombre    Valparaíso
#> 3   36 Hombre        Biobío
#> 4   19  Mujer Metropolitana
#> 5   35  Mujer         Maule

La base que vamos a usar durante todo el taller ya es un data frame, solo que mucho más grande:

datos
#> # A tibble: 1,000 × 101
#>       id sexo  tramo_edad quintil_ingreso educ  ideologia trade_crecimiento_de…¹
#>    <int> <fct> <ord>      <ord>           <ord> <fct>     <fct>                 
#>  1     1 Mujer 18-29      Q4              Técn… Izquierda Ni de acuerdo ni en d…
#>  2     2 Homb… 30-49      Q2              Técn… Centro    En desacuerdo         
#>  3     3 Homb… 18-29      Q4              Univ… Derecha   De acuerdo            
#>  4     4 Mujer 18-29      Q3              Univ… Derecha   En desacuerdo         
#>  5     5 Homb… 30-49      Q4              Univ… Ninguno   Muy en desacuerdo     
#>  6     6 Mujer 50-99      Q3              Bási… Derecha   De acuerdo            
#>  7     7 Homb… 50-99      Q2              Técn… Centro    Muy en desacuerdo     
#>  8     8 Homb… 30-49      Q3              Univ… Ninguno   En desacuerdo         
#>  9     9 Mujer 50-99      Q2              Técn… Derecha   De acuerdo            
#> 10    10 Homb… 18-29      Q5              Univ… Derecha   En desacuerdo         
#> # ℹ 990 more rows
#> # ℹ abbreviated name: ¹​trade_crecimiento_desigualdad
#> # ℹ 94 more variables: trade_ambiente_empleo <fct>,
#> #   trade_derechos_laborales <fct>, provision_pensiones <dbl>,
#> #   provision_salud <dbl>, provision_educ_escolar <dbl>,
#> #   provision_educ_universitaria <dbl>, provision_cuidado_ninos <dbl>,
#> #   provision_cuidado_mayores <dbl>, zona <fct>, region <fct>, …
…
